{
  "name": "Ace",
  "type": "editor",
  "architecture": "javascript",
  "environment": "html",
  "license": "BSD",
  "website": "https://ace.c9.io",
  "organization": "ajax.org",
  "description": "Ace is an embeddable code editor written in JavaScript. It matches the features and performance of native editors such as Sublime, Vim and TextMate. It can be easily embedded in any web page and JavaScript application. Ace is maintained as the primary editor for Cloud9 IDE and is the successor of the Mozilla Skywriter (Bespin) project.",
  "views": [
    {
      "type": "text"
    },
    {
      "type": "application",
      "subtype": "application/json"
    },
    {
      "type": "application",
      "subtype": "application/x-msdownload"
    },
    {
      "type": "application",
      "subtype": "application/x-sh"
    },
    {
      "type": "application",
      "subtype": "application/javascript"
    }
  ],
  "edits": [
    {
      "type": "plain",
      "subtype": "plain/text"
    }
  ],
  "install": [
    {
      "type": "resource",
      "subtype": "git",
      "source": "https://github.com/ajaxorg/ace-builds/",
      "name": "Ace Editor Builds",
      "to": "ace-builds",
      "id": "QmQFY888wAS4JTbEp7N2QrTi3677yFnMswSgeKgcCtsBeZ",
      "uid": "QmVtfRASjbQnc5dzCdgSkoV15RLkPhCAEsZdEr8osE12E9",
      "revision": "5dsFAeEfc8eZZ9ds4e8jnpk1rNpx7E"
    },
    {
      "type": "resource",
      "subtype": "file",
      "source": "http://requirejs.org/docs/release/2.3.5/minified/require.js",
      "name": "RequireJS 2.3.5 Source File",
      "to": "require.js",
      "id": "QmV4z9wx98Lg4UnQtiGPbkVZkQqMD8dN3kWuPfzErEY8pt",
      "uid": "QmU4dvvTvrF5PvPYhB4vy3TNV1zh1L3xUdndW3wo8kxzxv",
      "revision": "QmU6CQFAfAYe6BVzX788zJNdb4cqYy5sR3HGBwZwd2T2zg"
    }
  ],
  "file": "editor.html"
}
